hello/test.vcd
$date
	Thu Oct 20 11:39:29 2016
$end
$version
	Icarus Verilog
$end
$timescale
	1ns
$end
$scope module pipetop $end
$var wire 1 ! PCSrcD $end
$var wire 1 " sysW $end
$var wire 1 # sysM $end
$var wire 1 $ sysE $end
$var wire 1 % sysD $end
$var wire 32 & regvW [31:0] $end
$var wire 32 ' regvM [31:0] $end
$var wire 32 ( regvE [31:0] $end
$var wire 32 ) regvD [31:0] $end
$var wire 32 * regaW [31:0] $end
$var wire 32 + regaM [31:0] $end
$var wire 32 , regaE [31:0] $end
$var wire 32 - regaD [31:0] $end
$var wire 32 . data2E [31:0] $end
$var wire 32 / data2D [31:0] $end
$var wire 32 0 data1E [31:0] $end
$var wire 32 1 data1D [31:0] $end
$var wire 5 2 WriteRegW [4:0] $end
$var wire 5 3 WriteRegM [4:0] $end
$var wire 5 4 WriteRegE [4:0] $end
$var wire 32 5 WriteDataM [31:0] $end
$var wire 32 6 WriteDataE [31:0] $end
$var wire 32 7 WD3 [31:0] $end
$var wire 1 8 StallF $end
$var wire 1 9 StallD $end
$var wire 32 : SrcBE [31:0] $end
$var wire 32 ; SrcAE [31:0] $end
$var wire 32 < SignImmE [31:0] $end
$var wire 32 = SignImmD [31:0] $end
$var wire 32 > ShiftBeforeADD [31:0] $end
$var wire 5 ? RtE [4:0] $end
$var wire 5 @ RtD [4:0] $end
$var wire 5 A RsE [4:0] $end
$var wire 5 B RsD [4:0] $end
$var wire 32 C ResultW [31:0] $end
$var wire 1 D RegWriteW $end
$var wire 1 E RegWriteM $end
$var wire 1 F RegWriteE $end
$var wire 1 G RegWriteD $end
$var wire 1 H RegDstE $end
$var wire 1 I RegDstD $end
$var wire 32 J ReadDataW [31:0] $end
$var wire 32 K ReadDataM [31:0] $end
$var wire 5 L RdE [4:0] $end
$var wire 5 M RdD [4:0] $end
$var wire 32 N RD2Eq [31:0] $end
$var wire 32 O RD1Eq [31:0] $end
$var wire 32 P PCPlus4W [31:0] $end
$var wire 32 Q PCPlus4M [31:0] $end
$var wire 32 R PCPlus4F [31:0] $end
$var wire 32 S PCPlus4E [31:0] $end
$var wire 32 T PCPlus4D [31:0] $end
$var wire 32 U PCMid2 [31:0] $end
$var wire 32 V PCMid1 [31:0] $end
$var wire 32 W PCF [31:0] $end
$var wire 32 X PCBranchD [31:0] $end
$var wire 32 Y PC [31:0] $end
$var wire 1 Z MemtoRegW $end
$var wire 1 [ MemtoRegM $end
$var wire 1 \ MemtoRegE $end
$var wire 1 ] MemtoRegD $end
$var wire 1 ^ MemWriteM $end
$var wire 1 _ MemWriteE $end
$var wire 1 ` MemWriteD $end
$var wire 1 a MemRead $end
$var wire 32 b JumpPc [31:0] $end
$var wire 1 c Jump $end
$var wire 1 d Jr $end
$var wire 1 e JalW $end
$var wire 1 f JalM $end
$var wire 1 g JalE $end
$var wire 1 h JalD $end
$var wire 32 i InstrF [31:0] $end
$var wire 32 j InstrD [31:0] $end
$var wire 2 k ForwardBE [1:0] $end
$var wire 1 l ForwardBD $end
$var wire 2 m ForwardAE [1:0] $end
$var wire 1 n ForwardAD $end
$var wire 1 o FlushE $end
$var wire 1 p EqualD $end
$var wire 1 q BranchD $end
$var wire 1 r ALUSrcE $end
$var wire 1 s ALUSrcD $end
$var wire 32 t ALUOutW [31:0] $end
$var wire 32 u ALUOutM [31:0] $end
$var wire 32 v ALUInE [31:0] $end
$var wire 3 w ALUControlE [2:0] $end
$var wire 3 x ALUControlD [2:0] $end
$var wire 5 y A3 [4:0] $end
$var reg 1 z clk $end
$scope module add4toPCF $end
$var wire 32 { pc_out [31:0] $end
$var wire 32 | pc_in [31:0] $end
$upscope $end
$scope module aluforE $end
$var wire 32 } out [31:0] $end
$var wire 32 ~ rt [31:0] $end
$var wire 32 !" rs [31:0] $end
$var wire 3 "" opcode [2:0] $end
$var reg 32 #" temp [31:0] $end
$upscope $end
$scope module instructionMem $end
$var wire 30 $" pc [29:0] $end
$var wire 1 " sys $end
$var wire 32 %" regv [31:0] $end
$var wire 32 &" rega [31:0] $end
$var reg 1 '" counter $end
$var reg 32 (" inst [31:0] $end
$var reg 32 )" loc [31:0] $end
$upscope $end
$scope module mux5ForRtEandRdE $end
$var wire 1 H select $end
$var wire 5 *" out [4:0] $end
$var wire 5 +" in2 [4:0] $end
$var wire 5 ," in1 [4:0] $end
$upscope $end
$scope module mux5forJalW $end
$var wire 5 -" in1 [4:0] $end
$var wire 1 e select $end
$var wire 5 ." out [4:0] $end
$var wire 5 /" in2 [4:0] $end
$upscope $end
$scope module muxforJr $end
$var wire 1 d select $end
$var wire 32 0" out [31:0] $end
$var wire 32 1" in2 [31:0] $end
$var wire 32 2" in1 [31:0] $end
$upscope $end
$scope module muxforJump $end
$var wire 32 3" in1 [31:0] $end
$var wire 1 c select $end
$var wire 32 4" out [31:0] $end
$var wire 32 5" in2 [31:0] $end
$upscope $end
$scope module muxforMemtoReg $end
$var wire 1 Z select $end
$var wire 32 6" out [31:0] $end
$var wire 32 7" in2 [31:0] $end
$var wire 32 8" in1 [31:0] $end
$upscope $end
$scope module muxforPC $end
$var wire 32 9" in1 [31:0] $end
$var wire 32 :" in2 [31:0] $end
$var wire 1 ! select $end
$var wire 32 ;" out [31:0] $end
$upscope $end
$scope module muxforPCPlus4W $end
$var wire 32 <" in2 [31:0] $end
$var wire 1 e select $end
$var wire 32 =" out [31:0] $end
$var wire 32 >" in1 [31:0] $end
$upscope $end
$scope module muxforRD1 $end
$var wire 1 n select $end
$var wire 32 ?" out [31:0] $end
$var wire 32 @" in2 [31:0] $end
$var wire 32 A" in1 [31:0] $end
$upscope $end
$scope module muxforRD2 $end
$var wire 1 l select $end
$var wire 32 B" out [31:0] $end
$var wire 32 C" in2 [31:0] $end
$var wire 32 D" in1 [31:0] $end
$upscope $end
$scope module muxforSrcBE $end
$var wire 1 r select $end
$var wire 32 E" out [31:0] $end
$var wire 32 F" in2 [31:0] $end
$var wire 32 G" in1 [31:0] $end
$upscope $end
$scope module muxfordata1E $end
$var wire 32 H" in2 [31:0] $end
$var wire 2 I" select [1:0] $end
$var wire 32 J" in3 [31:0] $end
$var wire 32 K" in1 [31:0] $end
$var reg 32 L" out [31:0] $end
$upscope $end
$scope module muxfordata2E $end
$var wire 32 M" in2 [31:0] $end
$var wire 2 N" select [1:0] $end
$var wire 32 O" in3 [31:0] $end
$var wire 32 P" in1 [31:0] $end
$var reg 32 Q" out [31:0] $end
$upscope $end
$scope module theControl $end
$var wire 6 R" func [5:0] $end
$var wire 6 S" opcode [5:0] $end
$var reg 1 s ALUSrc $end
$var reg 3 T" ALUop [2:0] $end
$var reg 1 q branch $end
$var reg 1 h jal $end
$var reg 1 d jr $end
$var reg 1 c jump $end
$var reg 1 a memRead $end
$var reg 1 ] memToReg $end
$var reg 1 ` memWrite $end
$var reg 1 I regDst $end
$var reg 1 G regWrite $end
$var reg 1 % sys $end
$upscope $end
$scope module theDataMem $end
$var wire 32 U" Rdata [31:0] $end
$var wire 1 z clk $end
$var wire 32 V" Wdata [31:0] $end
$var wire 1 ^ MemWrite $end
$var wire 32 W" Addr [31:0] $end
$var integer 32 X" i [31:0] $end
$upscope $end
$scope module theDtoE $end
$var wire 3 Y" ALUControlD [2:0] $end
$var wire 1 s ALUSrcD $end
$var wire 1 h JalD $end
$var wire 1 ` MemWriteD $end
$var wire 1 ] MemtoRegD $end
$var wire 5 Z" RdD [4:0] $end
$var wire 1 I RegDstD $end
$var wire 1 G RegWriteD $end
$var wire 5 [" RsD [4:0] $end
$var wire 5 \" RtD [4:0] $end
$var wire 1 z clk $end
$var wire 1 % sysD $end
$var wire 32 ]" regvD [31:0] $end
$var wire 32 ^" regaD [31:0] $end
$var wire 32 _" data2D [31:0] $end
$var wire 32 `" data1D [31:0] $end
$var wire 32 a" SignImmD [31:0] $end
$var wire 32 b" PCPlus4D [31:0] $end
$var wire 1 o FlushE $end
$var reg 3 c" ALUControlE [2:0] $end
$var reg 1 r ALUSrcE $end
$var reg 1 g JalE $end
$var reg 1 _ MemWriteE $end
$var reg 1 \ MemtoRegE $end
$var reg 32 d" PCPlus4E [31:0] $end
$var reg 5 e" RdE [4:0] $end
$var reg 1 H RegDstE $end
$var reg 1 F RegWriteE $end
$var reg 5 f" RsE [4:0] $end
$var reg 5 g" RtE [4:0] $end
$var reg 32 h" SignImmE [31:0] $end
$var reg 32 i" data1E [31:0] $end
$var reg 32 j" data2E [31:0] $end
$var reg 32 k" regaE [31:0] $end
$var reg 32 l" regvE [31:0] $end
$var reg 1 $ sysE $end
$upscope $end
$scope module theEtoM $end
$var wire 32 m" ALUInE [31:0] $end
$var wire 1 g JalE $end
$var wire 1 _ MemWriteE $end
$var wire 1 \ MemtoRegE $end
$var wire 32 n" PCPlus4E [31:0] $end
$var wire 1 F RegWriteE $end
$var wire 32 o" WriteDataE [31:0] $end
$var wire 5 p" WriteRegE [4:0] $end
$var wire 1 z clk $end
$var wire 32 q" regaE [31:0] $end
$var wire 32 r" regvE [31:0] $end
$var wire 1 $ sysE $end
$var reg 32 s" ALUOutM [31:0] $end
$var reg 1 f JalM $end
$var reg 1 ^ MemWriteM $end
$var reg 1 [ MemtoRegM $end
$var reg 32 t" PCPlus4M [31:0] $end
$var reg 1 E RegWriteM $end
$var reg 32 u" WriteDataM [31:0] $end
$var reg 5 v" WriteRegM [4:0] $end
$var reg 32 w" regaM [31:0] $end
$var reg 32 x" regvM [31:0] $end
$var reg 1 # sysM $end
$upscope $end
$scope module theExtend $end
$var wire 32 y" all1 [31:0] $end
$var wire 16 z" immediate [15:0] $end
$var wire 32 {" extened [31:0] $end
$upscope $end
$scope module theFtoD $end
$var wire 32 |" InstrF [31:0] $end
$var wire 32 }" PCPlus4F [31:0] $end
$var wire 1 ! PCSrcD $end
$var wire 1 z clk $end
$var wire 1 9 StallD $end
$var reg 32 ~" InstrD [31:0] $end
$var reg 32 !# PCPlus4D [31:0] $end
$upscope $end
$scope module theHazardUnit $end
$var wire 1 q BranchD $end
$var wire 1 \ MemtoRegE $end
$var wire 1 [ MemtoRegM $end
$var wire 1 F RegWriteE $end
$var wire 1 E RegWriteM $end
$var wire 5 "# RsD [4:0] $end
$var wire 5 ## RsE [4:0] $end
$var wire 5 $# RtD [4:0] $end
$var wire 5 %# RtE [4:0] $end
$var wire 5 &# WriteRegE [4:0] $end
$var wire 5 '# WriteRegM [4:0] $end
$var wire 5 (# WriteRegW [4:0] $end
$var wire 1 D RegWriteW $end
$var reg 1 o FlushE $end
$var reg 1 n ForwardAD $end
$var reg 2 )# ForwardAE [1:0] $end
$var reg 1 l ForwardBD $end
$var reg 2 *# ForwardBE [1:0] $end
$var reg 1 9 StallD $end
$var reg 1 8 StallF $end
$upscope $end
$scope module theMtoW $end
$var wire 32 +# ALUOutM [31:0] $end
$var wire 1 f JalM $end
$var wire 1 [ MemtoRegM $end
$var wire 32 ,# PCPlus4M [31:0] $end
$var wire 32 -# ReadDataM [31:0] $end
$var wire 1 E RegWriteM $end
$var wire 5 .# WriteRegM [4:0] $end
$var wire 1 z clk $end
$var wire 32 /# regaM [31:0] $end
$var wire 32 0# regvM [31:0] $end
$var wire 1 # sysM $end
$var reg 32 1# ALUOutW [31:0] $end
$var reg 1 e JalW $end
$var reg 1 Z MemtoRegW $end
$var reg 32 2# PCPlus4W [31:0] $end
$var reg 32 3# ReadDataW [31:0] $end
$var reg 1 D RegWriteW $end
$var reg 5 4# WriteRegW [4:0] $end
$var reg 32 5# regaW [31:0] $end
$var reg 32 6# regvW [31:0] $end
$var reg 1 " sysW $end
$upscope $end
$scope module thePCwithStallF $end
$var wire 32 7# PC [31:0] $end
$var wire 1 8 StallF $end
$var wire 1 z clk $end
$var reg 32 8# PCF [31:0] $end
$upscope $end
$scope module theRegister $end
$var wire 1 z clk $end
$var wire 32 9# data [31:0] $end
$var wire 1 D regWrite $end
$var wire 32 :# rega [31:0] $end
$var wire 5 ;# register1 [4:0] $end
$var wire 5 <# register2 [4:0] $end
$var wire 32 =# regv [31:0] $end
$var wire 5 ># writeregister [4:0] $end
$var reg 32 ?# data1 [31:0] $end
$var reg 32 @# data2 [31:0] $end
$var integer 32 A# i [31:0] $end
$upscope $end
$upscope $end
$enddefinitions $end
#0
$dumpvars
b11111 A#
b0 @#
b0 ?#
b0 >#
b0 =#
b0 <#
b0 ;#
b0 :#
b0 9#
b10000000000000000110000 8#
b10000000000000000110100 7#
b0 6#
b0 5#
b0 4#
b0 3#
b0 2#
b0 1#
b0 0#
b0 /#
b0 .#
bx -#
b0 ,#
b0 +#
b0 *#
b0 )#
b0 (#
b0 '#
bx &#
bx %#
b0 $#
bx ##
b0 "#
b100000000000000000000 !#
b0 ~"
b10000000000000000110100 }"
b111100000111010111111111111111 |"
b0 {"
b0 z"
b11111111111111110000000000000000 y"
b0 x"
b0 w"
b0 v"
b0 u"
b0 t"
b0 s"
bx r"
bx q"
bx p"
bx o"
bx n"
bx m"
bx l"
bx k"
bx j"
bx i"
bx h"
bx g"
bx f"
bx e"
bx d"
bx c"
b100000000000000000000 b"
b0 a"
b0 `"
b0 _"
b0 ^"
b0 ]"
b0 \"
b0 ["
b0 Z"
bx Y"
b11111111111111111111111011111111 X"
b0 W"
b0 V"
bx U"
bx T"
b0 S"
b0 R"
bx Q"
bx P"
b0 O"
b0 N"
b0 M"
bx L"
bx K"
b0 J"
b0 I"
b0 H"
bx G"
bx F"
bx E"
b0 D"
b0 C"
b0 B"
b0 A"
b0 @"
b0 ?"
b0 >"
b0 ="
b0 <"
b10000000000000000110100 ;"
b10000000000000000110100 :"
b100000000000000000000 9"
b0 8"
b0 7"
b0 6"
b10000000000000000110100 5"
b10000000000000000110100 4"
b0 3"
b0 2"
b10000000000000000110100 1"
b10000000000000000110100 0"
b0 /"
b0 ."
b11111 -"
bx ,"
bx +"
bx *"
bx )"
b111100000111010111111111111111 ("
0'"
b0 &"
b0 %"
b100000000000000001100 $"
bx #"
bx ""
bx !"
bx ~
bx }
b10000000000000000110100 |
b10000000000000000110000 {
0z
b0 y
bx x
bx w
bx v
b0 u
b0 t
0s
xr
0q
1p
0o
0n
b0 m
0l
b0 k
b0 j
b111100000111010111111111111111 i
0h
xg
0f
0e
0d
0c
b0 b
0a
0`
x_
0^
0]
x\
0[
0Z
b10000000000000000110100 Y
b100000000000000000000 X
b10000000000000000110000 W
b10000000000000000110100 V
b10000000000000000110100 U
b100000000000000000000 T
bx S
b10000000000000000110100 R
b0 Q
b0 P
b0 O
b0 N
b0 M
bx L
bx K
b0 J
0I
xH
0G
xF
0E
0D
b0 C
b0 B
bx A
b0 @
bx ?
b0 >
b0 =
bx <
bx ;
bx :
09
08
b0 7
bx 6
b0 5
bx 4
b0 3
b0 2
b0 1
bx 0
b0 /
bx .
b0 -
bx ,
b0 +
b0 *
b0 )
bx (
b0 '
b0 &
0%
x$
0#
0"
0!
$end
#50
b0 v
b0 }
b0 m"
b0 #"
b0 :
b0 ~
b0 E"
1s
1G
b11 x
b11 T"
b11 Y"
b0 ;
b0 !"
b0 L"
b0 6
b0 F"
b0 Q"
b0 o"
b10000000000000000111000 Y
b10000000000000000111000 0"
b10000000000000000111000 7#
b11111111111111100 >
b10000000000000000111000 U
b10000000000000000111000 1"
b10000000000000000111000 4"
b1100000100000000000000010100 i
b1100000100000000000000010100 ("
b1100000100000000000000010100 |"
b111111111111111 =
b111111111111111 a"
b111111111111111 {"
b11101011111111111111100 b
b11101011111111111111100 3"
b10000000000000000111000 V
b10000000000000000111000 5"
b10000000000000000111000 ;"
b100000000000000001101 $"
b1111 M
b1111 Z"
b11101 @
b11101 \"
b11101 $#
b11101 <#
b111111 R"
b1111 S"
b111111111111111 z"
b0 4
b0 *"
b0 p"
b0 &#
b10000000000000000111000 R
b10000000000000000111000 |
b10000000000000000111000 :"
b10000000000000000111000 }"
b10000000000000000110100 W
b10000000000000000110100 {
b10000000000000000110100 8#
b10000100000000000110000 X
b10000100000000000110000 9"
b10000000000000000110100 T
b10000000000000000110100 b"
b10000000000000000110100 !#
b111100000111010111111111111111 j
b111100000111010111111111111111 ~"
0$
b0 ,
b0 k"
b0 q"
b0 (
b0 l"
b0 r"
0g
b100000000000000000000 S
b100000000000000000000 d"
b100000000000000000000 n"
b0 <
b0 G"
b0 h"
b0 L
b0 ,"
b0 e"
b0 ?
b0 +"
b0 g"
b0 %#
b0 A
b0 f"
b0 ##
b0 .
b0 P"
b0 j"
b0 0
b0 K"
b0 i"
0H
0r
0_
0\
0F
x#
bx +
bx w"
bx /#
bx '
bx x"
bx 0#
xf
bx Q
bx t"
bx ,#
bx 3
bx v"
bx '#
bx .#
bx 5
bx V"
bx u"
bx u
bx A"
bx D"
bx J"
bx O"
bx W"
bx s"
bx +#
x^
x[
xE
bx J
bx 8"
bx 3#
1z
#100
0z
#150
1h
xs
bx x
bx T"
bx Y"
1c
1I
b1010000 >
b10000000000000001010000 Y
b10000000000000001010000 0"
b10000000000000001010000 7#
b1111111111111110000000000000000 v
b1111111111111110000000000000000 }
b1111111111111110000000000000000 m"
b1111111111111110000000000000000 #"
b10100 =
b10100 a"
b10100 {"
b10000000000000001010000 b
b10000000000000001010000 3"
b10000000000000001010000 U
b10000000000000001010000 1"
b10000000000000001010000 4"
b110111101111011111111111111100 i
b110111101111011111111111111100 ("
b110111101111011111111111111100 |"
bx 7
bx ="
bx 9#
bx y
bx ."
bx >#
bx C
bx 6"
bx <"
bx H"
bx M"
b11101 4
b11101 *"
b11101 p"
b11101 &#
b111111111111111 :
b111111111111111 ~
b111111111111111 E"
b0 M
b0 Z"
b10000 @
b10000 \"
b10000 $#
b10000 <#
b10100 R"
b11 S"
b10100 z"
b10000000000000000111100 V
b10000000000000000111100 5"
b10000000000000000111100 ;"
b100000000000000001110 $"
x"
bx *
bx 5#
bx &
bx 6#
xe
bx P
bx >"
bx 2#
bx 2
bx /"
bx (#
bx 4#
bx t
bx 7"
bx 1#
xZ
xD
0#
b0 +
b0 w"
b0 /#
b0 '
b0 x"
b0 0#
0f
b100000000000000000000 Q
b100000000000000000000 t"
b100000000000000000000 ,#
b0 3
b0 v"
b0 '#
b0 .#
b0 5
b0 V"
b0 u"
b0 u
b0 A"
b0 D"
b0 J"
b0 O"
b0 W"
b0 s"
b0 +#
0^
0[
0E
b10000000000000000110100 S
b10000000000000000110100 d"
b10000000000000000110100 n"
b111111111111111 <
b111111111111111 G"
b111111111111111 h"
b1111 L
b1111 ,"
b1111 e"
b11101 ?
b11101 +"
b11101 g"
b11101 %#
1r
b11 w
b11 ""
b11 c"
1F
b10000000000000010001000 X
b10000000000000010001000 9"
b10000000000000000111000 T
b10000000000000000111000 b"
b10000000000000000111000 !#
b1100000100000000000000010100 j
b1100000100000000000000010100 ~"
b10000000000000000111100 R
b10000000000000000111100 |
b10000000000000000111100 :"
b10000000000000000111100 }"
b10000000000000000111000 W
b10000000000000000111000 {
b10000000000000000111000 8#
1z
#200
0z
#250
0h
1s
b1 x
b1 T"
b1 Y"
0c
0I
b10000000000000001010100 Y
b10000000000000001010100 0"
b10000000000000001010100 7#
b1111111111111110000000000000000 N
b1111111111111110000000000000000 B"
1p
b1111111111111110000000000000000 O
b1111111111111110000000000000000 ?"
b11111111111111111111111111110000 >
b10000000000000001010100 U
b10000000000000001010100 1"
b10000000000000001010100 4"
b100111101111011111111111101000 i
b100111101111011111111111101000 ("
b100111101111011111111111101000 |"
1l
1n
b11111111111111111111111111111100 =
b11111111111111111111111111111100 a"
b11111111111111111111111111111100 {"
b1110111101111111111111110000 b
b1110111101111111111111110000 3"
b10000000000000001010100 V
b10000000000000001010100 5"
b10000000000000001010100 ;"
b100000000000000010100 $"
b11111 M
b11111 Z"
b11101 @
b11101 \"
b11101 $#
b11101 B
b11101 ["
b11101 "#
b11101 <#
b11101 ;#
b111100 R"
b1101 S"
b1111111111111100 z"
b0 4
b0 *"
b0 p"
b0 &#
b0x0x00 :
b0x0x00 ~
b0x0x00 E"
b0 v
b0 }
b0 m"
b0 #"
b0 7
b0 ="
b0 9#
b0 y
b0 ."
b0 >#
b0 C
b0 6"
b0 <"
b0 H"
b0 M"
b10000000000000001010100 R
b10000000000000001010100 |
b10000000000000001010100 :"
b10000000000000001010100 }"
b10000000000000001010000 W
b10000000000000001010000 {
b10000000000000001010000 8#
b10000000000000000101100 X
b10000000000000000101100 9"
b10000000000000000111100 T
b10000000000000000111100 b"
b10000000000000000111100 !#
b110111101111011111111111111100 j
b110111101111011111111111111100 ~"
1g
b10000000000000000111000 S
b10000000000000000111000 d"
b10000000000000000111000 n"
b10100 <
b10100 G"
b10100 h"
b0 L
b0 ,"
b0 e"
b10000 ?
b10000 +"
b10000 g"
b10000 %#
1H
xr
bx w
bx ""
bx c"
b10000000000000000110100 Q
b10000000000000000110100 t"
b10000000000000000110100 ,#
b11101 3
b11101 v"
b11101 '#
b11101 .#
b1111111111111110000000000000000 u
b1111111111111110000000000000000 A"
b1111111111111110000000000000000 D"
b1111111111111110000000000000000 J"
b1111111111111110000000000000000 O"
b1111111111111110000000000000000 W"
b1111111111111110000000000000000 s"
b1111111111111110000000000000000 +#
1E
0"
b0 *
b0 5#
b0 &
b0 6#
0e
b100000000000000000000 P
b100000000000000000000 >"
b100000000000000000000 2#
b0 2
b0 /"
b0 (#
b0 4#
b0 t
b0 7"
b0 1#
0Z
0D
1z
#300
0z
#350
b1111111111111110000000000000000 ;
b1111111111111110000000000000000 !"
b1111111111111110000000000000000 L"
b1111111111111110000000000000000 6
b1111111111111110000000000000000 F"
b1111111111111110000000000000000 Q"
b1111111111111110000000000000000 o"
b10 x
b10 T"
b10 Y"
b11111111111111111111111110100000 >
b10000000000000001011000 Y
b10000000000000001011000 0"
b10000000000000001011000 7#
b1111111111111110000000000000000 7
b1111111111111110000000000000000 ="
b1111111111111110000000000000000 9#
b11111111111111111111111111101000 =
b11111111111111111111111111101000 a"
b11111111111111111111111111101000 {"
b1110111101111111111110100000 b
b1110111101111111111110100000 3"
b10000000000000001011000 U
b10000000000000001011000 1"
b10000000000000001011000 4"
b10101111101111110000000000010100 i
b10101111101111110000000000010100 ("
b10101111101111110000000000010100 |"
b11101 y
b11101 ."
b11101 >#
b1111111111111110000000000000000 C
b1111111111111110000000000000000 6"
b1111111111111110000000000000000 <"
b1111111111111110000000000000000 H"
b1111111111111110000000000000000 M"
0l
0n
b0 N
b0 B"
1p
b0 O
b0 ?"
b1 k
b1 N"
b1 *#
b1 m
b1 I"
b1 )#
b11101 4
b11101 *"
b11101 p"
b11101 &#
b11111111111111111111111111111100 :
b11111111111111111111111111111100 ~
b11111111111111111111111111111100 E"
b11111111111111111111111111111100 v
b11111111111111111111111111111100 }
b11111111111111111111111111111100 m"
b11111111111111111111111111111100 #"
b101000 R"
b1001 S"
b1111111111101000 z"
b10000000000000001011000 V
b10000000000000001011000 5"
b10000000000000001011000 ;"
b100000000000000010101 $"
b10000000000000000110100 P
b10000000000000000110100 >"
b10000000000000000110100 2#
b11101 2
b11101 /"
b11101 (#
b11101 4#
b1111111111111110000000000000000 t
b1111111111111110000000000000000 7"
b1111111111111110000000000000000 1#
1D
1f
b10000000000000000111000 Q
b10000000000000000111000 t"
b10000000000000000111000 ,#
b0 3
b0 v"
b0 '#
b0 .#
b0 u
b0 A"
b0 D"
b0 J"
b0 O"
b0 W"
b0 s"
b0 +#
0g
b10000000000000000111100 S
b10000000000000000111100 d"
b10000000000000000111100 n"
b11111111111111111111111111111100 <
b11111111111111111111111111111100 G"
b11111111111111111111111111111100 h"
b11111 L
b11111 ,"
b11111 e"
b11101 ?
b11101 +"
b11101 g"
b11101 %#
b11101 A
b11101 f"
b11101 ##
0H
1r
b1 w
b1 ""
b1 c"
b1111111111111111110100 X
b1111111111111111110100 9"
b10000000000000001010100 T
b10000000000000001010100 b"
b10000000000000001010100 !#
b100111101111011111111111101000 j
b100111101111011111111111101000 ~"
b10000000000000001011000 R
b10000000000000001011000 |
b10000000000000001011000 :"
b10000000000000001011000 }"
b10000000000000001010100 W
b10000000000000001010100 {
b10000000000000001010100 8#
1z
#400
b1111111111111110000000000000000 N
b1111111111111110000000000000000 B"
1p
b1111111111111110000000000000000 O
b1111111111111110000000000000000 ?"
b1111111111111110000000000000000 /
b1111111111111110000000000000000 C"
b1111111111111110000000000000000 _"
b1111111111111110000000000000000 @#
b1111111111111110000000000000000 1
b1111111111111110000000000000000 2"
b1111111111111110000000000000000 @"
b1111111111111110000000000000000 `"
b1111111111111110000000000000000 ?#
0z
#450
1`
0G
b11111111111111111111111111111100 ;
b11111111111111111111111111111100 !"
b11111111111111111111111111111100 L"
b11111111111111111111111111111100 6
b11111111111111111111111111111100 F"
b11111111111111111111111111111100 Q"
b11111111111111111111111111111100 o"
b10000000000000001011100 Y
b10000000000000001011100 0"
b10000000000000001011100 7#
b1010000 >
b10000000000000001011100 U
b10000000000000001011100 1"
b10000000000000001011100 4"
b10101111101111100000000000010000 i
b10101111101111100000000000010000 ("
b10101111101111100000000000010000 |"
b10100 =
b10100 a"
b10100 {"
b1110111111000000000001010000 b
b1110111111000000000001010000 3"
b1111111111111110000000000000000 N
b1111111111111110000000000000000 B"
0p
b11111111111111111111111111111100 O
b11111111111111111111111111111100 ?"
b10000000000000001011100 V
b10000000000000001011100 5"
b10000000000000001011100 ;"
b100000000000000010110 $"
b0 M
b0 Z"
b11111 @
b11111 \"
b11111 $#
b11111 <#
b10100 R"
b101011 S"
b10100 z"
b11111111111111111111111111101000 :
b11111111111111111111111111101000 ~
b11111111111111111111111111101000 E"
b11111111111111111111111111100100 v
b11111111111111111111111111100100 }
b11111111111111111111111111100100 m"
b11111111111111111111111111100100 #"
0l
1n
b10000000000000000111000 7
b10000000000000000111000 ="
b10000000000000000111000 9#
b11111 y
b11111 ."
b11111 >#
b10 k
b10 N"
b10 *#
b10 m
b10 I"
b10 )#
b0 C
b0 6"
b0 <"
b0 H"
b0 M"
b10000000000000001011100 R
b10000000000000001011100 |
b10000000000000001011100 :"
b10000000000000001011100 }"
b10000000000000001011000 W
b10000000000000001011000 {
b10000000000000001011000 8#
b10000000000000010101000 X
b10000000000000010101000 9"
b10000000000000001011000 T
b10000000000000001011000 b"
b10000000000000001011000 !#
b10101111101111110000000000010100 j
b10101111101111110000000000010100 ~"
b10000000000000001010100 S
b10000000000000001010100 d"
b10000000000000001010100 n"
b11111111111111111111111111101000 <
b11111111111111111111111111101000 G"
b11111111111111111111111111101000 h"
b1111111111111110000000000000000 .
b1111111111111110000000000000000 P"
b1111111111111110000000000000000 j"
b1111111111111110000000000000000 0
b1111111111111110000000000000000 K"
b1111111111111110000000000000000 i"
b10 w
b10 ""
b10 c"
0f
b10000000000000000111100 Q
b10000000000000000111100 t"
b10000000000000000111100 ,#
b11101 3
b11101 v"
b11101 '#
b11101 .#
b1111111111111110000000000000000 5
b1111111111111110000000000000000 V"
b1111111111111110000000000000000 u"
b0 K
b0 U"
b0 -#
b11111111111111111111111111111100 u
b11111111111111111111111111111100 A"
b11111111111111111111111111111100 D"
b11111111111111111111111111111100 J"
b11111111111111111111111111111100 O"
b11111111111111111111111111111100 W"
b11111111111111111111111111111100 s"
b11111111111111111111111111111100 +#
1e
b10000000000000000111000 P
b10000000000000000111000 >"
b10000000000000000111000 2#
b0 2
b0 /"
b0 (#
b0 4#
b0 t
b0 7"
b0 1#
1z
#500
b10000000000000000111000 N
b10000000000000000111000 B"
b10000000000000000111000 /
b10000000000000000111000 C"
b10000000000000000111000 _"
b10000000000000000111000 @#
0z
